[gd_scene load_steps=2 format=3 uid="uid://cg07rliq4akml"]

[ext_resource type="Script" path="res://command_input.gd" id="1_u30lv"]

[node name="Node2D" type="Node2D"]
script = ExtResource("1_u30lv")
