[gd_scene load_steps=6 format=3 uid="uid://bgcvt1ypvqfr8"]

[ext_resource type="Script" path="res://join_map.gd" id="1_dlhrx"]

[sub_resource type="RectangleShape2D" id="RectangleShape2D_28txj"]
size = Vector2(20, 256)

[sub_resource type="Gradient" id="Gradient_lwf7v"]
colors = PackedColorArray(0.241156, 0.241156, 0.241156, 1, 0.691357, 0.691357, 0.691357, 1)

[sub_resource type="GradientTexture1D" id="GradientTexture1D_8ictr"]
gradient = SubResource("Gradient_lwf7v")

[sub_resource type="RectangleShape2D" id="RectangleShape2D_y5pf7"]
size = Vector2(1044, 566)

[node name="Node2D" type="Node2D"]
script = ExtResource("1_dlhrx")

[node name="Wall" type="Node2D" parent="."]
position = Vector2(546, 322)

[node name="StaticBody2D" type="StaticBody2D" parent="Wall"]

[node name="CollisionShape2D" type="CollisionShape2D" parent="Wall/StaticBody2D"]
position = Vector2(0, 1)
shape = SubResource("RectangleShape2D_28txj")

[node name="Sprite2D" type="Sprite2D" parent="Wall/StaticBody2D"]
rotation = -1.5708
scale = Vector2(1, 20)
texture = SubResource("GradientTexture1D_8ictr")

[node name="Area2D" type="Area2D" parent="."]
position = Vector2(534, 314)

[node name="CollisionShape2D" type="CollisionShape2D" parent="Area2D"]
position = Vector2(37, 11)
shape = SubResource("RectangleShape2D_y5pf7")
